{
  "server": {
    "host": "0.0.0.0",
    "port": "1234",
    "jwt_secret": "m4st3r4g",
    "password_salt": "mysalted",
    "debug": false
  },
  "postgres": {
    "host": "localhost",
    "port": "5432",
    "user": "backend",
    "password": "mypass",
    "db": "backend"
  },
  "mysql": {
    "host": "localhost",
    "port": "3306",
    "user": "root",
    "password": "Vincent581",
    "db": "tokdis_rfc"
  }
}